trabalho315
…
import pandas as pd
print(dataset_eletric_cars.head())

Estrutura do DataSet

Analisar a estrutura do dataset é essencial para compreender o tipo e o papel de cada variável, facilitando a escolha das operações adequadas. Essa etapa também ajuda a identificar inconsistências ou tipos incorretos de dados que podem afetar as análises posteriores.

describe(…)

A função describe(...) mostra um resumo das colunas, com estatísticas para numéricas e frequências para categóricas, ajudando a identificar missing values e padrões.

describe(dataset_eletric_cars)

22×7 DataFrame
 Row │ variable              mean     min                                media ⋯
     │ Symbol                Union…   Any                                Union ⋯
─────┼──────────────────────────────────────────────────────────────────────────
   1 │ brand                          Abarth                                   ⋯
   2 │ model                          #1 Brabus
   3 │ top_speed_kmh         185.487  125                                180.0
   4 │ battery_capacity_kWh  74.0437  21.3                               76.15
   5 │ battery_type                   Lithium-ion                              ⋯
   6 │ number_of_cells       485.293  72                                 216.0
   7 │ torque_nm             498.013  113                                430.0
   8 │ efficiency_wh_per_km  162.904  109                                155.0
  ⋮  │          ⋮               ⋮                     ⋮                    ⋮   ⋱
  16 │ drivetrain                     AWD                                      ⋯
  17 │ segment                        A - Mini
  18 │ length_mm             4678.51  3620                               4720.
  19 │ width_mm              1887.36  1610                               1890.
  20 │ height_mm             1601.13  1329                               1596. ⋯
  21 │ car_body_type                  Cabriolet
  22 │ source_url                     https://ev-database.org/car/1275…
                                                    4 columns and 7 rows omitted
…
